    1    1    1    1        0.3340229384
    1    1    1    4       -0.0000020919
    1    1    2    2        0.3264766692
    1    1    2    7        0.0002166637
    1    1    3    3        0.3264788651
    1    1    3    6       -0.0002197979
    1    1    4    1       -0.0000020919
    1    1    4    4        0.3244878574
    1    1    5    5        0.3244876136
    1    1    5    8        0.0000021985
    1    1    6    3       -0.0002197979
    1    1    6    6        0.3309695917
    1    1    7    2        0.0002166637
    1    1    7    7        0.3309727209
    1    1    8    5        0.0000021985
    1    1    8    8        0.3372454986
    1    2    1    2        0.1012956899
    1    2    1    7       -0.0032447188
    1    2    2    1        0.1012956899
    1    2    2    4        0.0794574967
    1    2    3    5       -0.0695793308
    1    2    3    8       -0.0035640277
    1    2    4    2        0.0794574967
    1    2    4    7        0.0720043114
    1    2    5    3       -0.0695793308
    1    2    5    6       -0.0810390566
    1    2    6    5       -0.0810390566
    1    2    6    8        0.1067335103
    1    2    7    1       -0.0032447188
    1    2    7    4        0.0720043114
    1    2    8    3       -0.0035640277
    1    2    8    6        0.1067335103
    1    3    1    3        0.1012949968
    1    3    1    6        0.0032434983
    1    3    2    5       -0.0695783972
    1    3    2    8        0.0035621629
    1    3    3    1        0.1012949968
    1    3    3    4       -0.0794558757
    1    3    4    3       -0.0794558757
    1    3    4    6        0.0720029728
    1    3    5    2       -0.0695783972
    1    3    5    7        0.0810376082
    1    3    6    1        0.0032434983
    1    3    6    4        0.0720029728
    1    3    7    5        0.0810376082
    1    3    7    8        0.1067337121
    1    3    8    2        0.0035621629
    1    3    8    7        0.1067337121
    1    4    1    1       -0.0000020919
    1    4    1    4        0.0534664918
    1    4    2    2        0.0429527618
    1    4    2    7        0.0362425463
    1    4    3    3       -0.0429556420
    1    4    3    6        0.0362423144
    1    4    4    1        0.0534664918
    1    4    4    4        0.0000000249
    1    4    5    5       -0.0000005879
    1    4    5    8       -0.0518440955
    1    4    6    3        0.0362423144
    1    4    6    6        0.0357540639
    1    4    7    2        0.0362425463
    1    4    7    7       -0.0357554603
    1    4    8    5       -0.0518440955
    1    4    8    8       -0.0000013869
    1    5    1    5        0.0534654647
    1    5    1    8        0.0000005918
    1    5    2    3       -0.0352462181
    1    5    2    6       -0.0431354912
    1    5    3    2       -0.0352462181
    1    5    3    7        0.0431355824
    1    5    4    5        0.0000007882
    1    5    4    8       -0.0518431309
    1    5    5    1        0.0534654647
    1    5    5    4        0.0000007882
    1    5    6    2       -0.0431354912
    1    5    6    7       -0.0280469313
    1    5    7    3        0.0431355824
    1    5    7    6       -0.0280469313
    1    5    8    1        0.0000005918
    1    5    8    4       -0.0518431309
    1    6    1    3        0.0032434983
    1    6    1    6        0.0344626248
    1    6    2    5       -0.0297217816
    1    6    2    8        0.0333312793
    1    6    3    1        0.0032434983
    1    6    3    4        0.0206886373
    1    6    4    3        0.0206886373
    1    6    4    6        0.0234662549
    1    6    5    2       -0.0297217816
    1    6    5    7       -0.0135898825
    1    6    6    1        0.0344626248
    1    6    6    4        0.0234662549
    1    6    7    5       -0.0135898825
    1    6    7    8        0.0035628535
    1    6    8    2        0.0333312793
    1    6    8    7        0.0035628535
    1    7    1    2       -0.0032447188
    1    7    1    7        0.0344631466
    1    7    2    1       -0.0032447188
    1    7    2    4        0.0206881749
    1    7    3    5        0.0297222635
    1    7    3    8        0.0333319651
    1    7    4    2        0.0206881749
    1    7    4    7       -0.0234658369
    1    7    5    3        0.0297222635
    1    7    5    6       -0.0135893017
    1    7    6    5       -0.0135893017
    1    7    6    8       -0.0035631741
    1    7    7    1        0.0344631466
    1    7    7    4       -0.0234658369
    1    7    8    3        0.0333319651
    1    7    8    6       -0.0035631741
    1    8    1    5        0.0000005918
    1    8    1    8        0.0271930076
    1    8    2    3       -0.0000004730
    1    8    2    6        0.0267916579
    1    8    3    2       -0.0000004730
    1    8    3    7        0.0267926503
    1    8    4    5       -0.0255058740
    1    8    4    8       -0.0000002763
    1    8    5    1        0.0000005918
    1    8    5    4       -0.0255058740
    1    8    6    2        0.0267916579
    1    8    6    7       -0.0000000206
    1    8    7    3        0.0267926503
    1    8    7    6       -0.0000000206
    1    8    8    1        0.0271930076
    1    8    8    4       -0.0000002763
    2    1    1    2        0.1012956899
    2    1    1    7       -0.0032447188
    2    1    2    1        0.1012956899
    2    1    2    4        0.0794574967
    2    1    3    5       -0.0695793308
    2    1    3    8       -0.0035640277
    2    1    4    2        0.0794574967
    2    1    4    7        0.0720043114
    2    1    5    3       -0.0695793308
    2    1    5    6       -0.0810390566
    2    1    6    5       -0.0810390566
    2    1    6    8        0.1067335103
    2    1    7    1       -0.0032447188
    2    1    7    4        0.0720043114
    2    1    8    3       -0.0035640277
    2    1    8    6        0.1067335103
    2    2    1    1        0.3264766692
    2    2    1    4        0.0429527618
    2    2    2    2        0.3574118519
    2    2    2    7        0.0298014844
    2    2    3    3        0.2883590372
    2    2    3    6        0.0282708368
    2    2    4    1        0.0429527618
    2    2    4    4        0.3236700398
    2    2    5    5        0.3226594306
    2    2    5    8       -0.0413040846
    2    2    6    3        0.0282708368
    2    2    6    6        0.3592416773
    2    2    7    2        0.0298014844
    2    2    7    7        0.3024495666
    2    2    8    5       -0.0413040846
    2    2    8    8        0.3377638541
    2    3    1    5       -0.0352462181
    2    3    1    8       -0.0000004730
    2    3    2    3        0.0233141013
    2    3    2    6        0.0281879056
    2    3    3    2        0.0233141013
    2    3    3    7       -0.0281881286
    2    3    4    5       -0.0000004367
    2    3    4    8        0.0333970331
    2    3    5    1       -0.0352462181
    2    3    5    4       -0.0000004367
    2    3    6    2        0.0281879056
    2    3    6    7        0.0177957623
    2    3    7    3       -0.0281881286
    2    3    7    6        0.0177957623
    2    3    8    1       -0.0000004730
    2    3    8    4        0.0333970331
    2    4    1    2        0.0794574967
    2    4    1    7        0.0206881749
    2    4    2    1        0.0794574967
    2    4    2    4        0.0794204778
    2    4    3    5       -0.0362675988
    2    4    3    8        0.0181098366
    2    4    4    2        0.0794204778
    2    4    4    7        0.0453338713
    2    4    5    3       -0.0362675988
    2    4    5    6       -0.0741361790
    2    4    6    5       -0.0741361790
    2    4    6    8        0.0863467999
    2    4    7    1        0.0206881749
    2    4    7    4        0.0453338713
    2    4    8    3        0.0181098366
    2    4    8    6        0.0863467999
    2    5    1    3       -0.0695783972
    2    5    1    6       -0.0297217816
    2    5    2    5        0.0706348226
    2    5    2    8       -0.0281708654
    2    5    3    1       -0.0695783972
    2    5    3    4        0.0362659059
    2    5    4    3        0.0362659059
    2    5    4    6       -0.0663030939
    2    5    5    2        0.0706348226
    2    5    5    7       -0.0451254928
    2    5    6    1       -0.0297217816
    2    5    6    4       -0.0663030939
    2    5    7    5       -0.0451254928
    2    5    7    8       -0.0756708146
    2    5    8    2       -0.0281708654
    2    5    8    7       -0.0756708146
    2    6    1    5       -0.0431354912
    2    6    1    8        0.0267916579
    2    6    2    3        0.0281879056
    2    6    2    6        0.0620609183
    2    6    3    2        0.0281879056
    2    6    3    7       -0.0092047852
    2    6    4    5       -0.0251826785
    2    6    4    8        0.0444161799
    2    6    5    1       -0.0431354912
    2    6    5    4       -0.0251826785
    2    6    6    2        0.0620609183
    2    6    6    7        0.0249272961
    2    6    7    3       -0.0092047852
    2    6    7    6        0.0249272961
    2    6    8    1        0.0267916579
    2    6    8    4        0.0444161799
    2    7    1    1        0.0002166637
    2    7    1    4        0.0362425463
    2    7    2    2        0.0298014844
    2    7    2    7        0.0289162583
    2    7    3    3       -0.0282733273
    2    7    3    6        0.0211487430
    2    7    4    1        0.0362425463
    2    7    4    4        0.0057651139
    2    7    5    5       -0.0046362084
    2    7    5    8       -0.0370305740
    2    7    6    3        0.0211487430
    2    7    6    6        0.0264174163
    2    7    7    2        0.0289162583
    2    7    7    7       -0.0255843781
    2    7    8    5       -0.0370305740
    2    7    8    8        0.0009653432
    2    8    1    3        0.0035621629
    2    8    1    6        0.0333312793
    2    8    2    5       -0.0281708654
    2    8    2    8        0.0360038451
    2    8    3    1        0.0035621629
    2    8    3    4        0.0181107692
    2    8    4    3        0.0181107692
    2    8    4    6        0.0279559408
    2    8    5    2       -0.0281708654
    2    8    5    7       -0.0172829304
    2    8    6    1        0.0333312793
    2    8    6    4        0.0279559408
    2    8    7    5       -0.0172829304
    2    8    7    8        0.0044388402
    2    8    8    2        0.0360038451
    2    8    8    7        0.0044388402
    3    1    1    3        0.1012949968
    3    1    1    6        0.0032434983
    3    1    2    5       -0.0695783972
    3    1    2    8        0.0035621629
    3    1    3    1        0.1012949968
    3    1    3    4       -0.0794558757
    3    1    4    3       -0.0794558757
    3    1    4    6        0.0720029728
    3    1    5    2       -0.0695783972
    3    1    5    7        0.0810376082
    3    1    6    1        0.0032434983
    3    1    6    4        0.0720029728
    3    1    7    5        0.0810376082
    3    1    7    8        0.1067337121
    3    1    8    2        0.0035621629
    3    1    8    7        0.1067337121
    3    2    1    5       -0.0352462181
    3    2    1    8       -0.0000004730
    3    2    2    3        0.0233141013
    3    2    2    6        0.0281879056
    3    2    3    2        0.0233141013
    3    2    3    7       -0.0281881286
    3    2    4    5       -0.0000004367
    3    2    4    8        0.0333970331
    3    2    5    1       -0.0352462181
    3    2    5    4       -0.0000004367
    3    2    6    2        0.0281879056
    3    2    6    7        0.0177957623
    3    2    7    3       -0.0281881286
    3    2    7    6        0.0177957623
    3    2    8    1       -0.0000004730
    3    2    8    4        0.0333970331
    3    3    1    1        0.3264788651
    3    3    1    4       -0.0429556420
    3    3    2    2        0.2883590372
    3    3    2    7       -0.0282733273
    3    3    3    3        0.3574151055
    3    3    3    6       -0.0298036602
    3    3    4    1       -0.0429556420
    3    3    4    4        0.3236695925
    3    3    5    5        0.3226599458
    3    3    5    8        0.0413074600
    3    3    6    3       -0.0298036602
    3    3    6    6        0.3024479097
    3    3    7    2       -0.0282733273
    3    3    7    7        0.3592449448
    3    3    8    5        0.0413074600
    3    3    8    8        0.3377657967
    3    4    1    3       -0.0794558757
    3    4    1    6        0.0206886373
    3    4    2    5        0.0362659059
    3    4    2    8        0.0181107692
    3    4    3    1       -0.0794558757
    3    4    3    4        0.0794177284
    3    4    4    3        0.0794177284
    3    4    4    6       -0.0453310787
    3    4    5    2        0.0362659059
    3    4    5    7       -0.0741335954
    3    4    6    1        0.0206886373
    3    4    6    4       -0.0453310787
    3    4    7    5       -0.0741335954
    3    4    7    8       -0.0863449026
    3    4    8    2        0.0181107692
    3    4    8    7       -0.0863449026
    3    5    1    2       -0.0695793308
    3    5    1    7        0.0297222635
    3    5    2    1       -0.0695793308
    3    5    2    4       -0.0362675988
    3    5    3    5        0.0706351093
    3    5    3    8        0.0281719885
    3    5    4    2       -0.0362675988
    3    5    4    7       -0.0663031021
    3    5    5    3        0.0706351093
    3    5    5    6        0.0451271048
    3    5    6    5        0.0451271048
    3    5    6    8       -0.0756707496
    3    5    7    1        0.0297222635
    3    5    7    4       -0.0663031021
    3    5    8    3        0.0281719885
    3    5    8    6       -0.0756707496
    3    6    1    1       -0.0002197979
    3    6    1    4        0.0362423144
    3    6    2    2        0.0282708368
    3    6    2    7        0.0211487430
    3    6    3    3       -0.0298036602
    3    6    3    6        0.0289158010
    3    6    4    1        0.0362423144
    3    6    4    4       -0.0057653453
    3    6    5    5        0.0046349741
    3    6    5    8       -0.0370301608
    3    6    6    3        0.0289158010
    3    6    6    6        0.0255828339
    3    6    7    2        0.0211487430
    3    6    7    7       -0.0264185575
    3    6    8    5       -0.0370301608
    3    6    8    8       -0.0009676768
    3    7    1    5        0.0431355824
    3    7    1    8        0.0267926503
    3    7    2    3       -0.0281881286
    3    7    2    6       -0.0092047852
    3    7    3    2       -0.0281881286
    3    7    3    7        0.0620611560
    3    7    4    5       -0.0251814143
    3    7    4    8       -0.0444156826
    3    7    5    1        0.0431355824
    3    7    5    4       -0.0251814143
    3    7    6    2       -0.0092047852
    3    7    6    7       -0.0249267651
    3    7    7    3        0.0620611560
    3    7    7    6       -0.0249267651
    3    7    8    1        0.0267926503
    3    7    8    4       -0.0444156826
    3    8    1    2       -0.0035640277
    3    8    1    7        0.0333319651
    3    8    2    1       -0.0035640277
    3    8    2    4        0.0181098366
    3    8    3    5        0.0281719885
    3    8    3    8        0.0360045949
    3    8    4    2        0.0181098366
    3    8    4    7       -0.0279561249
    3    8    5    3        0.0281719885
    3    8    5    6       -0.0172816700
    3    8    6    5       -0.0172816700
    3    8    6    8       -0.0044400516
    3    8    7    1        0.0333319651
    3    8    7    4       -0.0279561249
    3    8    8    3        0.0360045949
    3    8    8    6       -0.0044400516
    4    1    1    1       -0.0000020919
    4    1    1    4        0.0534664918
    4    1    2    2        0.0429527618
    4    1    2    7        0.0362425463
    4    1    3    3       -0.0429556420
    4    1    3    6        0.0362423144
    4    1    4    1        0.0534664918
    4    1    4    4        0.0000000249
    4    1    5    5       -0.0000005879
    4    1    5    8       -0.0518440955
    4    1    6    3        0.0362423144
    4    1    6    6        0.0357540639
    4    1    7    2        0.0362425463
    4    1    7    7       -0.0357554603
    4    1    8    5       -0.0518440955
    4    1    8    8       -0.0000013869
    4    2    1    2        0.0794574967
    4    2    1    7        0.0206881749
    4    2    2    1        0.0794574967
    4    2    2    4        0.0794204778
    4    2    3    5       -0.0362675988
    4    2    3    8        0.0181098366
    4    2    4    2        0.0794204778
    4    2    4    7        0.0453338713
    4    2    5    3       -0.0362675988
    4    2    5    6       -0.0741361790
    4    2    6    5       -0.0741361790
    4    2    6    8        0.0863467999
    4    2    7    1        0.0206881749
    4    2    7    4        0.0453338713
    4    2    8    3        0.0181098366
    4    2    8    6        0.0863467999
    4    3    1    3       -0.0794558757
    4    3    1    6        0.0206886373
    4    3    2    5        0.0362659059
    4    3    2    8        0.0181107692
    4    3    3    1       -0.0794558757
    4    3    3    4        0.0794177284
    4    3    4    3        0.0794177284
    4    3    4    6       -0.0453310787
    4    3    5    2        0.0362659059
    4    3    5    7       -0.0741335954
    4    3    6    1        0.0206886373
    4    3    6    4       -0.0453310787
    4    3    7    5       -0.0741335954
    4    3    7    8       -0.0863449026
    4    3    8    2        0.0181107692
    4    3    8    7       -0.0863449026
    4    4    1    1        0.3244878574
    4    4    1    4        0.0000000249
    4    4    2    2        0.3236700398
    4    4    2    7        0.0057651139
    4    4    3    3        0.3236695925
    4    4    3    6       -0.0057653453
    4    4    4    1        0.0000000249
    4    4    4    4        0.3323583999
    4    4    5    5        0.3183503961
    4    4    5    8        0.0000001357
    4    4    6    3       -0.0057653453
    4    4    6    6        0.3342924384
    4    4    7    2        0.0057651139
    4    4    7    7        0.3342928832
    4    4    8    5        0.0000001357
    4    4    8    8        0.3428475201
    4    5    1    5        0.0000007882
    4    5    1    8       -0.0255058740
    4    5    2    3       -0.0000004367
    4    5    2    6       -0.0251826785
    4    5    3    2       -0.0000004367
    4    5    3    7       -0.0251814143
    4    5    4    5        0.0240124595
    4    5    4    8       -0.0000011000
    4    5    5    1        0.0000007882
    4    5    5    4        0.0240124595
    4    5    6    2       -0.0251826785
    4    5    6    7       -0.0000007397
    4    5    7    3       -0.0251814143
    4    5    7    6       -0.0000007397
    4    5    8    1       -0.0255058740
    4    5    8    4       -0.0000011000
    4    6    1    3        0.0720029728
    4    6    1    6        0.0234662549
    4    6    2    5       -0.0663030939
    4    6    2    8        0.0279559408
    4    6    3    1        0.0720029728
    4    6    3    4       -0.0453310787
    4    6    4    3       -0.0453310787
    4    6    4    6        0.0727567276
    4    6    5    2       -0.0663030939
    4    6    5    7        0.0443842683
    4    6    6    1        0.0234662549
    4    6    6    4        0.0727567276
    4    6    7    5        0.0443842683
    4    6    7    8        0.0817649637
    4    6    8    2        0.0279559408
    4    6    8    7        0.0817649637
    4    7    1    2        0.0720043114
    4    7    1    7       -0.0234658369
    4    7    2    1        0.0720043114
    4    7    2    4        0.0453338713
    4    7    3    5       -0.0663031021
    4    7    3    8       -0.0279561249
    4    7    4    2        0.0453338713
    4    7    4    7        0.0727568300
    4    7    5    3       -0.0663031021
    4    7    5    6       -0.0443869086
    4    7    6    5       -0.0443869086
    4    7    6    8        0.0817656405
    4    7    7    1       -0.0234658369
    4    7    7    4        0.0727568300
    4    7    8    3       -0.0279561249
    4    7    8    6        0.0817656405
    4    8    1    5       -0.0518431309
    4    8    1    8       -0.0000002763
    4    8    2    3        0.0333970331
    4    8    2    6        0.0444161799
    4    8    3    2        0.0333970331
    4    8    3    7       -0.0444156826
    4    8    4    5       -0.0000011000
    4    8    4    8        0.0586464307
    4    8    5    1       -0.0518431309
    4    8    5    4       -0.0000011000
    4    8    6    2        0.0444161799
    4    8    6    7        0.0347673235
    4    8    7    3       -0.0444156826
    4    8    7    6        0.0347673235
    4    8    8    1       -0.0000002763
    4    8    8    4        0.0586464307
    5    1    1    5        0.0534654647
    5    1    1    8        0.0000005918
    5    1    2    3       -0.0352462181
    5    1    2    6       -0.0431354912
    5    1    3    2       -0.0352462181
    5    1    3    7        0.0431355824
    5    1    4    5        0.0000007882
    5    1    4    8       -0.0518431309
    5    1    5    1        0.0534654647
    5    1    5    4        0.0000007882
    5    1    6    2       -0.0431354912
    5    1    6    7       -0.0280469313
    5    1    7    3        0.0431355824
    5    1    7    6       -0.0280469313
    5    1    8    1        0.0000005918
    5    1    8    4       -0.0518431309
    5    2    1    3       -0.0695783972
    5    2    1    6       -0.0297217816
    5    2    2    5        0.0706348226
    5    2    2    8       -0.0281708654
    5    2    3    1       -0.0695783972
    5    2    3    4        0.0362659059
    5    2    4    3        0.0362659059
    5    2    4    6       -0.0663030939
    5    2    5    2        0.0706348226
    5    2    5    7       -0.0451254928
    5    2    6    1       -0.0297217816
    5    2    6    4       -0.0663030939
    5    2    7    5       -0.0451254928
    5    2    7    8       -0.0756708146
    5    2    8    2       -0.0281708654
    5    2    8    7       -0.0756708146
    5    3    1    2       -0.0695793308
    5    3    1    7        0.0297222635
    5    3    2    1       -0.0695793308
    5    3    2    4       -0.0362675988
    5    3    3    5        0.0706351093
    5    3    3    8        0.0281719885
    5    3    4    2       -0.0362675988
    5    3    4    7       -0.0663031021
    5    3    5    3        0.0706351093
    5    3    5    6        0.0451271048
    5    3    6    5        0.0451271048
    5    3    6    8       -0.0756707496
    5    3    7    1        0.0297222635
    5    3    7    4       -0.0663031021
    5    3    8    3        0.0281719885
    5    3    8    6       -0.0756707496
    5    4    1    5        0.0000007882
    5    4    1    8       -0.0255058740
    5    4    2    3       -0.0000004367
    5    4    2    6       -0.0251826785
    5    4    3    2       -0.0000004367
    5    4    3    7       -0.0251814143
    5    4    4    5        0.0240124595
    5    4    4    8       -0.0000011000
    5    4    5    1        0.0000007882
    5    4    5    4        0.0240124595
    5    4    6    2       -0.0251826785
    5    4    6    7       -0.0000007397
    5    4    7    3       -0.0251814143
    5    4    7    6       -0.0000007397
    5    4    8    1       -0.0255058740
    5    4    8    4       -0.0000011000
    5    5    1    1        0.3244876136
    5    5    1    4       -0.0000005879
    5    5    2    2        0.3226594306
    5    5    2    7       -0.0046362084
    5    5    3    3        0.3226599458
    5    5    3    6        0.0046349741
    5    5    4    1       -0.0000005879
    5    5    4    4        0.3183503961
    5    5    5    5        0.3323579793
    5    5    5    8        0.0000009242
    5    5    6    3        0.0046349741
    5    5    6    6        0.3353017406
    5    5    7    2       -0.0046362084
    5    5    7    7        0.3353030156
    5    5    8    5        0.0000009242
    5    5    8    8        0.3428473983
    5    6    1    2       -0.0810390566
    5    6    1    7       -0.0135893017
    5    6    2    1       -0.0810390566
    5    6    2    4       -0.0741361790
    5    6    3    5        0.0451271048
    5    6    3    8       -0.0172816700
    5    6    4    2       -0.0741361790
    5    6    4    7       -0.0443869086
    5    6    5    3        0.0451271048
    5    6    5    6        0.0815418278
    5    6    6    5        0.0815418278
    5    6    6    8       -0.0918284359
    5    6    7    1       -0.0135893017
    5    6    7    4       -0.0443869086
    5    6    8    3       -0.0172816700
    5    6    8    6       -0.0918284359
    5    7    1    3        0.0810376082
    5    7    1    6       -0.0135898825
    5    7    2    5       -0.0451254928
    5    7    2    8       -0.0172829304
    5    7    3    1        0.0810376082
    5    7    3    4       -0.0741335954
    5    7    4    3       -0.0741335954
    5    7    4    6        0.0443842683
    5    7    5    2       -0.0451254928
    5    7    5    7        0.0815394825
    5    7    6    1       -0.0135898825
    5    7    6    4        0.0443842683
    5    7    7    5        0.0815394825
    5    7    7    8        0.0918268195
    5    7    8    2       -0.0172829304
    5    7    8    7        0.0918268195
    5    8    1    1        0.0000021985
    5    8    1    4       -0.0518440955
    5    8    2    2       -0.0413040846
    5    8    2    7       -0.0370305740
    5    8    3    3        0.0413074600
    5    8    3    6       -0.0370301608
    5    8    4    1       -0.0518440955
    5    8    4    4        0.0000001357
    5    8    5    5        0.0000009242
    5    8    5    8        0.0586475253
    5    8    6    3       -0.0370301608
    5    8    6    6       -0.0426751014
    5    8    7    2       -0.0370305740
    5    8    7    7        0.0426771027
    5    8    8    5        0.0586475253
    5    8    8    8        0.0000017658
    6    1    1    3        0.0032434983
    6    1    1    6        0.0344626248
    6    1    2    5       -0.0297217816
    6    1    2    8        0.0333312793
    6    1    3    1        0.0032434983
    6    1    3    4        0.0206886373
    6    1    4    3        0.0206886373
    6    1    4    6        0.0234662549
    6    1    5    2       -0.0297217816
    6    1    5    7       -0.0135898825
    6    1    6    1        0.0344626248
    6    1    6    4        0.0234662549
    6    1    7    5       -0.0135898825
    6    1    7    8        0.0035628535
    6    1    8    2        0.0333312793
    6    1    8    7        0.0035628535
    6    2    1    5       -0.0431354912
    6    2    1    8        0.0267916579
    6    2    2    3        0.0281879056
    6    2    2    6        0.0620609183
    6    2    3    2        0.0281879056
    6    2    3    7       -0.0092047852
    6    2    4    5       -0.0251826785
    6    2    4    8        0.0444161799
    6    2    5    1       -0.0431354912
    6    2    5    4       -0.0251826785
    6    2    6    2        0.0620609183
    6    2    6    7        0.0249272961
    6    2    7    3       -0.0092047852
    6    2    7    6        0.0249272961
    6    2    8    1        0.0267916579
    6    2    8    4        0.0444161799
    6    3    1    1       -0.0002197979
    6    3    1    4        0.0362423144
    6    3    2    2        0.0282708368
    6    3    2    7        0.0211487430
    6    3    3    3       -0.0298036602
    6    3    3    6        0.0289158010
    6    3    4    1        0.0362423144
    6    3    4    4       -0.0057653453
    6    3    5    5        0.0046349741
    6    3    5    8       -0.0370301608
    6    3    6    3        0.0289158010
    6    3    6    6        0.0255828339
    6    3    7    2        0.0211487430
    6    3    7    7       -0.0264185575
    6    3    8    5       -0.0370301608
    6    3    8    8       -0.0009676768
    6    4    1    3        0.0720029728
    6    4    1    6        0.0234662549
    6    4    2    5       -0.0663030939
    6    4    2    8        0.0279559408
    6    4    3    1        0.0720029728
    6    4    3    4       -0.0453310787
    6    4    4    3       -0.0453310787
    6    4    4    6        0.0727567276
    6    4    5    2       -0.0663030939
    6    4    5    7        0.0443842683
    6    4    6    1        0.0234662549
    6    4    6    4        0.0727567276
    6    4    7    5        0.0443842683
    6    4    7    8        0.0817649637
    6    4    8    2        0.0279559408
    6    4    8    7        0.0817649637
    6    5    1    2       -0.0810390566
    6    5    1    7       -0.0135893017
    6    5    2    1       -0.0810390566
    6    5    2    4       -0.0741361790
    6    5    3    5        0.0451271048
    6    5    3    8       -0.0172816700
    6    5    4    2       -0.0741361790
    6    5    4    7       -0.0443869086
    6    5    5    3        0.0451271048
    6    5    5    6        0.0815418278
    6    5    6    5        0.0815418278
    6    5    6    8       -0.0918284359
    6    5    7    1       -0.0135893017
    6    5    7    4       -0.0443869086
    6    5    8    3       -0.0172816700
    6    5    8    6       -0.0918284359
    6    6    1    1        0.3309695917
    6    6    1    4        0.0357540639
    6    6    2    2        0.3592416773
    6    6    2    7        0.0264174163
    6    6    3    3        0.3024479097
    6    6    3    6        0.0255828339
    6    6    4    1        0.0357540639
    6    6    4    4        0.3342924384
    6    6    5    5        0.3353017406
    6    6    5    8       -0.0426751014
    6    6    6    3        0.0255828339
    6    6    6    6        0.3788413212
    6    6    7    2        0.0264174163
    6    6    7    7        0.3156359469
    6    6    8    5       -0.0426751014
    6    6    8    8        0.3576710970
    6    7    1    5       -0.0280469313
    6    7    1    8       -0.0000000206
    6    7    2    3        0.0177957623
    6    7    2    6        0.0249272961
    6    7    3    2        0.0177957623
    6    7    3    7       -0.0249267651
    6    7    4    5       -0.0000007397
    6    7    4    8        0.0347673235
    6    7    5    1       -0.0280469313
    6    7    5    4       -0.0000007397
    6    7    6    2        0.0249272961
    6    7    6    7        0.0216133429
    6    7    7    3       -0.0249267651
    6    7    7    6        0.0216133429
    6    7    8    1       -0.0000000206
    6    7    8    4        0.0347673235
    6    8    1    2        0.1067335103
    6    8    1    7       -0.0035631741
    6    8    2    1        0.1067335103
    6    8    2    4        0.0863467999
    6    8    3    5       -0.0756707496
    6    8    3    8       -0.0044400516
    6    8    4    2        0.0863467999
    6    8    4    7        0.0817656405
    6    8    5    3       -0.0756707496
    6    8    5    6       -0.0918284359
    6    8    6    5       -0.0918284359
    6    8    6    8        0.1274591553
    6    8    7    1       -0.0035631741
    6    8    7    4        0.0817656405
    6    8    8    3       -0.0044400516
    6    8    8    6        0.1274591553
    7    1    1    2       -0.0032447188
    7    1    1    7        0.0344631466
    7    1    2    1       -0.0032447188
    7    1    2    4        0.0206881749
    7    1    3    5        0.0297222635
    7    1    3    8        0.0333319651
    7    1    4    2        0.0206881749
    7    1    4    7       -0.0234658369
    7    1    5    3        0.0297222635
    7    1    5    6       -0.0135893017
    7    1    6    5       -0.0135893017
    7    1    6    8       -0.0035631741
    7    1    7    1        0.0344631466
    7    1    7    4       -0.0234658369
    7    1    8    3        0.0333319651
    7    1    8    6       -0.0035631741
    7    2    1    1        0.0002166637
    7    2    1    4        0.0362425463
    7    2    2    2        0.0298014844
    7    2    2    7        0.0289162583
    7    2    3    3       -0.0282733273
    7    2    3    6        0.0211487430
    7    2    4    1        0.0362425463
    7    2    4    4        0.0057651139
    7    2    5    5       -0.0046362084
    7    2    5    8       -0.0370305740
    7    2    6    3        0.0211487430
    7    2    6    6        0.0264174163
    7    2    7    2        0.0289162583
    7    2    7    7       -0.0255843781
    7    2    8    5       -0.0370305740
    7    2    8    8        0.0009653432
    7    3    1    5        0.0431355824
    7    3    1    8        0.0267926503
    7    3    2    3       -0.0281881286
    7    3    2    6       -0.0092047852
    7    3    3    2       -0.0281881286
    7    3    3    7        0.0620611560
    7    3    4    5       -0.0251814143
    7    3    4    8       -0.0444156826
    7    3    5    1        0.0431355824
    7    3    5    4       -0.0251814143
    7    3    6    2       -0.0092047852
    7    3    6    7       -0.0249267651
    7    3    7    3        0.0620611560
    7    3    7    6       -0.0249267651
    7    3    8    1        0.0267926503
    7    3    8    4       -0.0444156826
    7    4    1    2        0.0720043114
    7    4    1    7       -0.0234658369
    7    4    2    1        0.0720043114
    7    4    2    4        0.0453338713
    7    4    3    5       -0.0663031021
    7    4    3    8       -0.0279561249
    7    4    4    2        0.0453338713
    7    4    4    7        0.0727568300
    7    4    5    3       -0.0663031021
    7    4    5    6       -0.0443869086
    7    4    6    5       -0.0443869086
    7    4    6    8        0.0817656405
    7    4    7    1       -0.0234658369
    7    4    7    4        0.0727568300
    7    4    8    3       -0.0279561249
    7    4    8    6        0.0817656405
    7    5    1    3        0.0810376082
    7    5    1    6       -0.0135898825
    7    5    2    5       -0.0451254928
    7    5    2    8       -0.0172829304
    7    5    3    1        0.0810376082
    7    5    3    4       -0.0741335954
    7    5    4    3       -0.0741335954
    7    5    4    6        0.0443842683
    7    5    5    2       -0.0451254928
    7    5    5    7        0.0815394825
    7    5    6    1       -0.0135898825
    7    5    6    4        0.0443842683
    7    5    7    5        0.0815394825
    7    5    7    8        0.0918268195
    7    5    8    2       -0.0172829304
    7    5    8    7        0.0918268195
    7    6    1    5       -0.0280469313
    7    6    1    8       -0.0000000206
    7    6    2    3        0.0177957623
    7    6    2    6        0.0249272961
    7    6    3    2        0.0177957623
    7    6    3    7       -0.0249267651
    7    6    4    5       -0.0000007397
    7    6    4    8        0.0347673235
    7    6    5    1       -0.0280469313
    7    6    5    4       -0.0000007397
    7    6    6    2        0.0249272961
    7    6    6    7        0.0216133429
    7    6    7    3       -0.0249267651
    7    6    7    6        0.0216133429
    7    6    8    1       -0.0000000206
    7    6    8    4        0.0347673235
    7    7    1    1        0.3309727209
    7    7    1    4       -0.0357554603
    7    7    2    2        0.3024495666
    7    7    2    7       -0.0255843781
    7    7    3    3        0.3592449448
    7    7    3    6       -0.0264185575
    7    7    4    1       -0.0357554603
    7    7    4    4        0.3342928832
    7    7    5    5        0.3353030156
    7    7    5    8        0.0426771027
    7    7    6    3       -0.0264185575
    7    7    6    6        0.3156359469
    7    7    7    2       -0.0255843781
    7    7    7    7        0.3788444592
    7    7    8    5        0.0426771027
    7    7    8    8        0.3576738157
    7    8    1    3        0.1067337121
    7    8    1    6        0.0035628535
    7    8    2    5       -0.0756708146
    7    8    2    8        0.0044388402
    7    8    3    1        0.1067337121
    7    8    3    4       -0.0863449026
    7    8    4    3       -0.0863449026
    7    8    4    6        0.0817649637
    7    8    5    2       -0.0756708146
    7    8    5    7        0.0918268195
    7    8    6    1        0.0035628535
    7    8    6    4        0.0817649637
    7    8    7    5        0.0918268195
    7    8    7    8        0.1274599544
    7    8    8    2        0.0044388402
    7    8    8    7        0.1274599544
    8    1    1    5        0.0000005918
    8    1    1    8        0.0271930076
    8    1    2    3       -0.0000004730
    8    1    2    6        0.0267916579
    8    1    3    2       -0.0000004730
    8    1    3    7        0.0267926503
    8    1    4    5       -0.0255058740
    8    1    4    8       -0.0000002763
    8    1    5    1        0.0000005918
    8    1    5    4       -0.0255058740
    8    1    6    2        0.0267916579
    8    1    6    7       -0.0000000206
    8    1    7    3        0.0267926503
    8    1    7    6       -0.0000000206
    8    1    8    1        0.0271930076
    8    1    8    4       -0.0000002763
    8    2    1    3        0.0035621629
    8    2    1    6        0.0333312793
    8    2    2    5       -0.0281708654
    8    2    2    8        0.0360038451
    8    2    3    1        0.0035621629
    8    2    3    4        0.0181107692
    8    2    4    3        0.0181107692
    8    2    4    6        0.0279559408
    8    2    5    2       -0.0281708654
    8    2    5    7       -0.0172829304
    8    2    6    1        0.0333312793
    8    2    6    4        0.0279559408
    8    2    7    5       -0.0172829304
    8    2    7    8        0.0044388402
    8    2    8    2        0.0360038451
    8    2    8    7        0.0044388402
    8    3    1    2       -0.0035640277
    8    3    1    7        0.0333319651
    8    3    2    1       -0.0035640277
    8    3    2    4        0.0181098366
    8    3    3    5        0.0281719885
    8    3    3    8        0.0360045949
    8    3    4    2        0.0181098366
    8    3    4    7       -0.0279561249
    8    3    5    3        0.0281719885
    8    3    5    6       -0.0172816700
    8    3    6    5       -0.0172816700
    8    3    6    8       -0.0044400516
    8    3    7    1        0.0333319651
    8    3    7    4       -0.0279561249
    8    3    8    3        0.0360045949
    8    3    8    6       -0.0044400516
    8    4    1    5       -0.0518431309
    8    4    1    8       -0.0000002763
    8    4    2    3        0.0333970331
    8    4    2    6        0.0444161799
    8    4    3    2        0.0333970331
    8    4    3    7       -0.0444156826
    8    4    4    5       -0.0000011000
    8    4    4    8        0.0586464307
    8    4    5    1       -0.0518431309
    8    4    5    4       -0.0000011000
    8    4    6    2        0.0444161799
    8    4    6    7        0.0347673235
    8    4    7    3       -0.0444156826
    8    4    7    6        0.0347673235
    8    4    8    1       -0.0000002763
    8    4    8    4        0.0586464307
    8    5    1    1        0.0000021985
    8    5    1    4       -0.0518440955
    8    5    2    2       -0.0413040846
    8    5    2    7       -0.0370305740
    8    5    3    3        0.0413074600
    8    5    3    6       -0.0370301608
    8    5    4    1       -0.0518440955
    8    5    4    4        0.0000001357
    8    5    5    5        0.0000009242
    8    5    5    8        0.0586475253
    8    5    6    3       -0.0370301608
    8    5    6    6       -0.0426751014
    8    5    7    2       -0.0370305740
    8    5    7    7        0.0426771027
    8    5    8    5        0.0586475253
    8    5    8    8        0.0000017658
    8    6    1    2        0.1067335103
    8    6    1    7       -0.0035631741
    8    6    2    1        0.1067335103
    8    6    2    4        0.0863467999
    8    6    3    5       -0.0756707496
    8    6    3    8       -0.0044400516
    8    6    4    2        0.0863467999
    8    6    4    7        0.0817656405
    8    6    5    3       -0.0756707496
    8    6    5    6       -0.0918284359
    8    6    6    5       -0.0918284359
    8    6    6    8        0.1274591553
    8    6    7    1       -0.0035631741
    8    6    7    4        0.0817656405
    8    6    8    3       -0.0044400516
    8    6    8    6        0.1274591553
    8    7    1    3        0.1067337121
    8    7    1    6        0.0035628535
    8    7    2    5       -0.0756708146
    8    7    2    8        0.0044388402
    8    7    3    1        0.1067337121
    8    7    3    4       -0.0863449026
    8    7    4    3       -0.0863449026
    8    7    4    6        0.0817649637
    8    7    5    2       -0.0756708146
    8    7    5    7        0.0918268195
    8    7    6    1        0.0035628535
    8    7    6    4        0.0817649637
    8    7    7    5        0.0918268195
    8    7    7    8        0.1274599544
    8    7    8    2        0.0044388402
    8    7    8    7        0.1274599544
    8    8    1    1        0.3372454986
    8    8    1    4       -0.0000013869
    8    8    2    2        0.3377638541
    8    8    2    7        0.0009653432
    8    8    3    3        0.3377657967
    8    8    3    6       -0.0009676768
    8    8    4    1       -0.0000013869
    8    8    4    4        0.3428475201
    8    8    5    5        0.3428473983
    8    8    5    8        0.0000017658
    8    8    6    3       -0.0009676768
    8    8    6    6        0.3576710970
    8    8    7    2        0.0009653432
    8    8    7    7        0.3576738157
    8    8    8    5        0.0000017658
    8    8    8    8        0.3702041881
    0    0    0    0        8.5868537194
