   -32.46660301208      1
     0.61266127192      2
    -7.49724794898      3
     0.00000000000      4
     0.00000000000      5
    -6.82040463280      6
     0.00000000000      7
     0.00000000000      8
     0.00000000000      9
    -4.83306330589     10
    -0.06241798909     11
     0.31705590309     12
     0.00000000000     13
     0.00000000000     14
    -5.24977894219     15
    -0.08775041047     16
     0.49626432553     17
     0.00000000000     18
     0.00000000000     19
     1.82291847493     20
    -4.13810449861     21
     0.00000000000     22
     0.00000000000     23
     0.00000000000     24
     1.94210367409     25
     0.00000000000     26
     0.00000000000     27
    -4.40313654547     28
    -0.04147194422     29
     0.17111346436     30
     0.00000000000     31
     0.00000000000     32
    -0.07563127678     33
     0.34080270889     34
     0.00000000000     35
    -1.97932983322     36
     0.00000000000     37
     0.00000000000     38
     0.00000000000     39
     0.01437474515     40
     0.00000000000     41
     0.00000000000     42
     0.44777718991     43
     0.00000000000     44
    -1.82635751728     45
     0.00000000000     46
     0.00000000000     47
    -1.86807524797     48
     0.00000000000     49
     0.00000000000     50
     0.00000000000     51
     0.00000000000     52
     0.00000000000     53
     0.00000000000     54
    -4.48666518000     55
     0.11720588496     56
    -0.35016558073     57
     0.00000000000     58
     0.00000000000     59
    -1.15125843846     60
     1.44439477472     61
     0.00000000000     62
    -0.15202276665     63
     0.00000000000     64
     0.00000000000     65
    -4.17436833353     66
     0.00000000000     67
     0.00000000000     68
     0.00000000000     69
     1.08012502873     70
     0.00000000000     71
     0.00000000000     72
    -1.57976664788     73
     0.00000000000     74
     0.22351852443     75
     0.00000000000     76
     0.00000000000     77
    -4.15991700230     78
     0.35446110938     79
    -1.15377251533     80
     0.00000000000     81
     0.00000000000     82
     0.86953931146     83
    -0.04535652414     84
     0.00000000000     85
     0.24978619607     86
     0.00000000000     87
     0.00000000000     88
     0.60912685994     89
     0.00000000000     90
    -3.52777109257     91
     0.00000000000     92
     0.00000000000     93
     0.00000000000     94
     0.00000000000     95
     0.00000000000     96
     0.00000000000     97
     0.00000000000     98
     0.00000000000     99
     0.00000000000    100
     0.00000000000    101
     0.00000000000    102
     0.00000000000    103
     0.00000000000    104
    -1.37144885941    105
     0.00000000000    106
     0.00000000000    107
     0.00000000000    108
     0.00736501111    109
     0.00000000000    110
     0.00000000000    111
     0.11525644056    112
     0.00000000000    113
    -0.05247589774    114
     0.00000000000    115
     0.00000000000    116
     0.11000406617    117
     0.00000000000    118
     0.00000000000    119
    -1.38569886927    120
     0.12319448504    121
    -0.39717023042    122
     0.00000000000    123
     0.00000000000    124
     0.47689616129    125
    -0.25838820107    126
     0.00000000000    127
     0.14763360042    128
     0.00000000000    129
     0.00000000000    130
     0.66485265529    131
     0.00000000000    132
    -0.89704903293    133
     0.00000000000    134
     0.00000000000    135
    -1.80915390972    136
     0.00000000000    137
     0.00000000000    138
     0.57630427140    139
     0.00000000000    140
     0.00000000000    141
     0.00000000000    142
     0.00000000000    143
     0.00000000000    144
     0.00000000000    145
     0.98517501352    146
     0.00000000000    147
     0.00000000000    148
     0.00000000000    149
     0.00000000000    150
     0.00000000000    151
     0.00000000000    152
    -1.66551643395    153
     0.00000000000    154
     0.00000000000    155
     0.00000000000    156
     0.70708524199    157
     0.00000000000    158
     0.00000000000    159
    -0.55563719136    160
     0.00000000000    161
    -0.09249129811    162
     0.00000000000    163
     0.00000000000    164
    -1.53523399326    165
     0.00000000000    166
     0.00000000000    167
     0.00438793468    168
     0.00000000000    169
     0.00000000000    170
    -2.32442484310    171
    -0.33155958801    172
     0.93172823887    173
     0.00000000000    174
     0.00000000000    175
     0.23155799936    176
    -0.42166939179    177
     0.00000000000    178
    -0.32888462336    179
     0.00000000000    180
     0.00000000000    181
     1.20478806098    182
     0.00000000000    183
     0.91890056017    184
     0.00000000000    185
     0.00000000000    186
     0.20184511706    187
     0.00000000000    188
     0.00000000000    189
    -2.67356805777    190
     0.00544530352    191
    -0.01206852025    192
     0.00000000000    193
     0.00000000000    194
    -0.01384128801    195
     0.03424969190    196
     0.00000000000    197
     0.00740341130    198
     0.00000000000    199
     0.00000000000    200
    -0.01513326762    201
     0.00000000000    202
    -0.08679530188    203
     0.00000000000    204
     0.00000000000    205
     0.09854188527    206
     0.00000000000    207
     0.00000000000    208
    -0.07055489288    209
    -3.80004435752    210
     0.00000000000    211
     0.00000000000    212
     0.00000000000    213
     0.00000000000    214
     0.00000000000    215
     0.00000000000    216
     0.00000000000    217
     0.00000000000    218
     0.00000000000    219
     0.00000000000    220
     0.00000000000    221
     0.00000000000    222
     0.00000000000    223
     0.10225250547    224
     0.00000000000    225
     0.00000000000    226
     0.00000000000    227
     0.00000000000    228
     0.00000000000    229
     0.00000000000    230
    -3.80195609710    231
     0.00000000000    232
     0.00000000000    233
     0.01815299124    234
     0.00000000000    235
     0.00000000000    236
     0.00000000000    237
     0.00000000000    238
     0.00000000000    239
     0.00000000000    240
    -0.03462417675    241
     0.00000000000    242
     0.00000000000    243
     0.00000000000    244
     0.00000000000    245
     0.00000000000    246
     0.00000000000    247
    -0.06360190423    248
     0.00000000000    249
     0.00000000000    250
     0.00000000000    251
     0.00000000000    252
    -3.79559683143    253
    -0.03482774308    254
     0.03653258358    255
     0.00000000000    256
     0.00000000000    257
    -0.01569693155    258
    -0.08187153060    259
     0.00000000000    260
    -0.03030328283    261
     0.00000000000    262
     0.00000000000    263
     0.19010786878    264
     0.00000000000    265
     0.19345607275    266
     0.00000000000    267
     0.00000000000    268
    -0.03164104117    269
     0.00000000000    270
     0.00000000000    271
     0.29925977460    272
    -0.01045991224    273
     0.00000000000    274
     0.00000000000    275
    -3.73252367093    276
     0.00000000000    277
     0.00000000000    278
     0.00000000000    279
     0.01365415862    280
     0.00000000000    281
     0.00000000000    282
     0.11937167839    283
     0.00000000000    284
     0.03483984536    285
     0.00000000000    286
     0.00000000000    287
     0.30083796766    288
     0.00000000000    289
     0.00000000000    290
    -0.14716606215    291
     0.00000000000    292
     0.00000000000    293
    -0.45364209199    294
     0.00000000000    295
     0.00000000000    296
     0.00000000000    297
     0.00000000000    298
     0.00000000000    299
    -3.67745619450    300
